{
  "formatVersion": 1,
  "database": {
    "version": 44,
    "identityHash": "45eb2e6e0d8c7596c499e018cd3203a4",
    "entities": [
      {
        "tableName": "user",
        "createSql": "CREATE TABLE IF NOT EXISTS `${TABLE_NAME}` (`id` TEXT NOT NULL, `name` TEXT NOT NULL, `password` TEXT NOT NULL, `second_password_salt` TEXT NOT NULL, `type` TEXT NOT NULL, `timezone` TEXT NOT NULL, `disable_limits_until` INTEGER NOT NULL, `mail` TEXT NOT NULL, `current_device` TEXT NOT NULL, `category_for_not_assigned_apps` TEXT NOT NULL, `relax_primary_device` INTEGER NOT NULL, `mail_notification_flags` INTEGER NOT NULL, `blocked_times` TEXT NOT NULL, `flags` INTEGER NOT NULL, PRIMARY KEY(`id`))",
        "fields": [
          {
            "fieldPath": "id",
            "columnName": "id",
            "affinity": "TEXT",
            "notNull": true
          },
          {
            "fieldPath": "name",
            "columnName": "name",
            "affinity": "TEXT",
            "notNull": true
          },
          {
            "fieldPath": "password",
            "columnName": "password",
            "affinity": "TEXT",
            "notNull": true
          },
          {
            "fieldPath": "secondPasswordSalt",
            "columnName": "second_password_salt",
            "affinity": "TEXT",
            "notNull": true
          },
          {
            "fieldPath": "type",
            "columnName": "type",
            "affinity": "TEXT",
            "notNull": true
          },
          {
            "fieldPath": "timeZone",
            "columnName": "timezone",
            "affinity": "TEXT",
            "notNull": true
          },
          {
            "fieldPath": "disableLimitsUntil",
            "columnName": "disable_limits_until",
            "affinity": "INTEGER",
            "notNull": true
          },
          {
            "fieldPath": "mail",
            "columnName": "mail",
            "affinity": "TEXT",
            "notNull": true
          },
          {
            "fieldPath": "currentDevice",
            "columnName": "current_device",
            "affinity": "TEXT",
            "notNull": true
          },
          {
            "fieldPath": "categoryForNotAssignedApps",
            "columnName": "category_for_not_assigned_apps",
            "affinity": "TEXT",
            "notNull": true
          },
          {
            "fieldPath": "relaxPrimaryDevice",
            "columnName": "relax_primary_device",
            "affinity": "INTEGER",
            "notNull": true
          },
          {
            "fieldPath": "mailNotificationFlags",
            "columnName": "mail_notification_flags",
            "affinity": "INTEGER",
            "notNull": true
          },
          {
            "fieldPath": "obsoleteBlockedTimes",
            "columnName": "blocked_times",
            "affinity": "TEXT",
            "notNull": true
          },
          {
            "fieldPath": "flags",
            "columnName": "flags",
            "affinity": "INTEGER",
            "notNull": true
          }
        ],
        "primaryKey": {
          "columnNames": [
            "id"
          ],
          "autoGenerate": false
        },
        "indices": [],
        "foreignKeys": []
      },
      {
        "tableName": "device",
        "createSql": "CREATE TABLE IF NOT EXISTS `${TABLE_NAME}` (`id` TEXT NOT NULL, `name` TEXT NOT NULL, `model` TEXT NOT NULL, `added_at` INTEGER NOT NULL, `current_user_id` TEXT NOT NULL, `apps_version` TEXT NOT NULL, `network_time` TEXT NOT NULL, `current_protection_level` TEXT NOT NULL, `highest_permission_level` TEXT NOT NULL, `current_usage_stats_permission` TEXT NOT NULL, `highest_usage_stats_permission` TEXT NOT NULL, `current_notification_access_permission` TEXT NOT NULL, `highest_notification_access_permission` TEXT NOT NULL, `current_app_version` INTEGER NOT NULL, `highest_app_version` INTEGER NOT NULL, `tried_disabling_device_admin` INTEGER NOT NULL, `did_reboot` INTEGER NOT NULL, `had_manipulation` INTEGER NOT NULL, `had_manipulation_flags` INTEGER NOT NULL, `did_report_uninstall` INTEGER NOT NULL, `is_user_kept_signed_in` INTEGER NOT NULL, `show_device_connected` INTEGER NOT NULL, `default_user` TEXT NOT NULL, `default_user_timeout` INTEGER NOT NULL, `consider_reboot_manipulation` INTEGER NOT NULL, `current_overlay_permission` TEXT NOT NULL, `highest_overlay_permission` TEXT NOT NULL, `current_accessibility_service_permission` INTEGER NOT NULL, `was_accessibility_service_permission` INTEGER NOT NULL, `enable_activity_level_blocking` INTEGER NOT NULL, `q_or_later` INTEGER NOT NULL, `manipulation_flags` INTEGER NOT NULL, PRIMARY KEY(`id`))",
        "fields": [
          {
            "fieldPath": "id",
            "columnName": "id",
            "affinity": "TEXT",
            "notNull": true
          },
          {
            "fieldPath": "name",
            "columnName": "name",
            "affinity": "TEXT",
            "notNull": true
          },
          {
            "fieldPath": "model",
            "columnName": "model",
            "affinity": "TEXT",
            "notNull": true
          },
          {
            "fieldPath": "addedAt",
            "columnName": "added_at",
            "affinity": "INTEGER",
            "notNull": true
          },
          {
            "fieldPath": "currentUserId",
            "columnName": "current_user_id",
            "affinity": "TEXT",
            "notNull": true
          },
          {
            "fieldPath": "installedAppsVersion",
            "columnName": "apps_version",
            "affinity": "TEXT",
            "notNull": true
          },
          {
            "fieldPath": "networkTime",
            "columnName": "network_time",
            "affinity": "TEXT",
            "notNull": true
          },
          {
            "fieldPath": "currentProtectionLevel",
            "columnName": "current_protection_level",
            "affinity": "TEXT",
            "notNull": true
          },
          {
            "fieldPath": "highestProtectionLevel",
            "columnName": "highest_permission_level",
            "affinity": "TEXT",
            "notNull": true
          },
          {
            "fieldPath": "currentUsageStatsPermission",
            "columnName": "current_usage_stats_permission",
            "affinity": "TEXT",
            "notNull": true
          },
          {
            "fieldPath": "highestUsageStatsPermission",
            "columnName": "highest_usage_stats_permission",
            "affinity": "TEXT",
            "notNull": true
          },
          {
            "fieldPath": "currentNotificationAccessPermission",
            "columnName": "current_notification_access_permission",
            "affinity": "TEXT",
            "notNull": true
          },
          {
            "fieldPath": "highestNotificationAccessPermission",
            "columnName": "highest_notification_access_permission",
            "affinity": "TEXT",
            "notNull": true
          },
          {
            "fieldPath": "currentAppVersion",
            "columnName": "current_app_version",
            "affinity": "INTEGER",
            "notNull": true
          },
          {
            "fieldPath": "highestAppVersion",
            "columnName": "highest_app_version",
            "affinity": "INTEGER",
            "notNull": true
          },
          {
            "fieldPath": "manipulationTriedDisablingDeviceAdmin",
            "columnName": "tried_disabling_device_admin",
            "affinity": "INTEGER",
            "notNull": true
          },
          {
            "fieldPath": "manipulationDidReboot",
            "columnName": "did_reboot",
            "affinity": "INTEGER",
            "notNull": true
          },
          {
            "fieldPath": "hadManipulation",
            "columnName": "had_manipulation",
            "affinity": "INTEGER",
            "notNull": true
          },
          {
            "fieldPath": "hadManipulationFlags",
            "columnName": "had_manipulation_flags",
            "affinity": "INTEGER",
            "notNull": true
          },
          {
            "fieldPath": "didReportUninstall",
            "columnName": "did_report_uninstall",
            "affinity": "INTEGER",
            "notNull": true
          },
          {
            "fieldPath": "isUserKeptSignedIn",
            "columnName": "is_user_kept_signed_in",
            "affinity": "INTEGER",
            "notNull": true
          },
          {
            "fieldPath": "showDeviceConnected",
            "columnName": "show_device_connected",
            "affinity": "INTEGER",
            "notNull": true
          },
          {
            "fieldPath": "defaultUser",
            "columnName": "default_user",
            "affinity": "TEXT",
            "notNull": true
          },
          {
            "fieldPath": "defaultUserTimeout",
            "columnName": "default_user_timeout",
            "affinity": "INTEGER",
            "notNull": true
          },
          {
            "fieldPath": "considerRebootManipulation",
            "columnName": "consider_reboot_manipulation",
            "affinity": "INTEGER",
            "notNull": true
          },
          {
            "fieldPath": "currentOverlayPermission",
            "columnName": "current_overlay_permission",
            "affinity": "TEXT",
            "notNull": true
          },
          {
            "fieldPath": "highestOverlayPermission",
            "columnName": "highest_overlay_permission",
            "affinity": "TEXT",
            "notNull": true
          },
          {
            "fieldPath": "accessibilityServiceEnabled",
            "columnName": "current_accessibility_service_permission",
            "affinity": "INTEGER",
            "notNull": true
          },
          {
            "fieldPath": "wasAccessibilityServiceEnabled",
            "columnName": "was_accessibility_service_permission",
            "affinity": "INTEGER",
            "notNull": true
          },
          {
            "fieldPath": "enableActivityLevelBlocking",
            "columnName": "enable_activity_level_blocking",
            "affinity": "INTEGER",
            "notNull": true
          },
          {
            "fieldPath": "qOrLater",
            "columnName": "q_or_later",
            "affinity": "INTEGER",
            "notNull": true
          },
          {
            "fieldPath": "manipulationFlags",
            "columnName": "manipulation_flags",
            "affinity": "INTEGER",
            "notNull": true
          }
        ],
        "primaryKey": {
          "columnNames": [
            "id"
          ],
          "autoGenerate": false
        },
        "indices": [],
        "foreignKeys": []
      },
      {
        "tableName": "app",
        "createSql": "CREATE TABLE IF NOT EXISTS `${TABLE_NAME}` (`device_id` TEXT NOT NULL, `package_name` TEXT NOT NULL, `title` TEXT NOT NULL, `launchable` INTEGER NOT NULL, `recommendation` TEXT NOT NULL, PRIMARY KEY(`device_id`, `package_name`))",
        "fields": [
          {
            "fieldPath": "deviceId",
            "columnName": "device_id",
            "affinity": "TEXT",
            "notNull": true
          },
          {
            "fieldPath": "packageName",
            "columnName": "package_name",
            "affinity": "TEXT",
            "notNull": true
          },
          {
            "fieldPath": "title",
            "columnName": "title",
            "affinity": "TEXT",
            "notNull": true
          },
          {
            "fieldPath": "isLaunchable",
            "columnName": "launchable",
            "affinity": "INTEGER",
            "notNull": true
          },
          {
            "fieldPath": "recommendation",
            "columnName": "recommendation",
            "affinity": "TEXT",
            "notNull": true
          }
        ],
        "primaryKey": {
          "columnNames": [
            "device_id",
            "package_name"
          ],
          "autoGenerate": false
        },
        "indices": [
          {
            "name": "index_app_device_id",
            "unique": false,
            "columnNames": [
              "device_id"
            ],
            "orders": [],
            "createSql": "CREATE INDEX IF NOT EXISTS `index_app_device_id` ON `${TABLE_NAME}` (`device_id`)"
          },
          {
            "name": "index_app_package_name",
            "unique": false,
            "columnNames": [
              "package_name"
            ],
            "orders": [],
            "createSql": "CREATE INDEX IF NOT EXISTS `index_app_package_name` ON `${TABLE_NAME}` (`package_name`)"
          }
        ],
        "foreignKeys": []
      },
      {
        "tableName": "category_app",
        "createSql": "CREATE TABLE IF NOT EXISTS `${TABLE_NAME}` (`category_id` TEXT NOT NULL, `package_name` TEXT NOT NULL, PRIMARY KEY(`category_id`, `package_name`))",
        "fields": [
          {
            "fieldPath": "categoryId",
            "columnName": "category_id",
            "affinity": "TEXT",
            "notNull": true
          },
          {
            "fieldPath": "appSpecifierString",
            "columnName": "package_name",
            "affinity": "TEXT",
            "notNull": true
          }
        ],
        "primaryKey": {
          "columnNames": [
            "category_id",
            "package_name"
          ],
          "autoGenerate": false
        },
        "indices": [
          {
            "name": "index_category_app_category_id",
            "unique": false,
            "columnNames": [
              "category_id"
            ],
            "orders": [],
            "createSql": "CREATE INDEX IF NOT EXISTS `index_category_app_category_id` ON `${TABLE_NAME}` (`category_id`)"
          },
          {
            "name": "index_category_app_package_name",
            "unique": false,
            "columnNames": [
              "package_name"
            ],
            "orders": [],
            "createSql": "CREATE INDEX IF NOT EXISTS `index_category_app_package_name` ON `${TABLE_NAME}` (`package_name`)"
          }
        ],
        "foreignKeys": []
      },
      {
        "tableName": "category",
        "createSql": "CREATE TABLE IF NOT EXISTS `${TABLE_NAME}` (`id` TEXT NOT NULL, `child_id` TEXT NOT NULL, `title` TEXT NOT NULL, `blocked_times` TEXT NOT NULL, `extra_time` INTEGER NOT NULL, `extra_time_day` INTEGER NOT NULL, `temporarily_blocked` INTEGER NOT NULL, `temporarily_blocked_end_time` INTEGER NOT NULL, `base_version` TEXT NOT NULL, `apps_version` TEXT NOT NULL, `rules_version` TEXT NOT NULL, `usedtimes_version` TEXT NOT NULL, `tasks_version` TEXT NOT NULL DEFAULT '', `parent_category_id` TEXT NOT NULL, `block_all_notifications` INTEGER NOT NULL, `time_warnings` INTEGER NOT NULL, `min_battery_charging` INTEGER NOT NULL, `min_battery_mobile` INTEGER NOT NULL, `sort` INTEGER NOT NULL, `disable_limits_until` INTEGER NOT NULL, `flags` INTEGER NOT NULL DEFAULT 0, `block_notification_delay` INTEGER NOT NULL DEFAULT 0, PRIMARY KEY(`id`))",
        "fields": [
          {
            "fieldPath": "id",
            "columnName": "id",
            "affinity": "TEXT",
            "notNull": true
          },
          {
            "fieldPath": "childId",
            "columnName": "child_id",
            "affinity": "TEXT",
            "notNull": true
          },
          {
            "fieldPath": "title",
            "columnName": "title",
            "affinity": "TEXT",
            "notNull": true
          },
          {
            "fieldPath": "blockedMinutesInWeek",
            "columnName": "blocked_times",
            "affinity": "TEXT",
            "notNull": true
          },
          {
            "fieldPath": "extraTimeInMillis",
            "columnName": "extra_time",
            "affinity": "INTEGER",
            "notNull": true
          },
          {
            "fieldPath": "extraTimeDay",
            "columnName": "extra_time_day",
            "affinity": "INTEGER",
            "notNull": true
          },
          {
            "fieldPath": "temporarilyBlocked",
            "columnName": "temporarily_blocked",
            "affinity": "INTEGER",
            "notNull": true
          },
          {
            "fieldPath": "temporarilyBlockedEndTime",
            "columnName": "temporarily_blocked_end_time",
            "affinity": "INTEGER",
            "notNull": true
          },
          {
            "fieldPath": "baseVersion",
            "columnName": "base_version",
            "affinity": "TEXT",
            "notNull": true
          },
          {
            "fieldPath": "assignedAppsVersion",
            "columnName": "apps_version",
            "affinity": "TEXT",
            "notNull": true
          },
          {
            "fieldPath": "timeLimitRulesVersion",
            "columnName": "rules_version",
            "affinity": "TEXT",
            "notNull": true
          },
          {
            "fieldPath": "usedTimesVersion",
            "columnName": "usedtimes_version",
            "affinity": "TEXT",
            "notNull": true
          },
          {
            "fieldPath": "tasksVersion",
            "columnName": "tasks_version",
            "affinity": "TEXT",
            "notNull": true,
            "defaultValue": "''"
          },
          {
            "fieldPath": "parentCategoryId",
            "columnName": "parent_category_id",
            "affinity": "TEXT",
            "notNull": true
          },
          {
            "fieldPath": "blockAllNotifications",
            "columnName": "block_all_notifications",
            "affinity": "INTEGER",
            "notNull": true
          },
          {
            "fieldPath": "timeWarnings",
            "columnName": "time_warnings",
            "affinity": "INTEGER",
            "notNull": true
          },
          {
            "fieldPath": "minBatteryLevelWhileCharging",
            "columnName": "min_battery_charging",
            "affinity": "INTEGER",
            "notNull": true
          },
          {
            "fieldPath": "minBatteryLevelMobile",
            "columnName": "min_battery_mobile",
            "affinity": "INTEGER",
            "notNull": true
          },
          {
            "fieldPath": "sort",
            "columnName": "sort",
            "affinity": "INTEGER",
            "notNull": true
          },
          {
            "fieldPath": "disableLimitsUntil",
            "columnName": "disable_limits_until",
            "affinity": "INTEGER",
            "notNull": true
          },
          {
            "fieldPath": "flags",
            "columnName": "flags",
            "affinity": "INTEGER",
            "notNull": true,
            "defaultValue": "0"
          },
          {
            "fieldPath": "blockNotificationDelay",
            "columnName": "block_notification_delay",
            "affinity": "INTEGER",
            "notNull": true,
            "defaultValue": "0"
          }
        ],
        "primaryKey": {
          "columnNames": [
            "id"
          ],
          "autoGenerate": false
        },
        "indices": [],
        "foreignKeys": []
      },
      {
        "tableName": "used_time",
        "createSql": "CREATE TABLE IF NOT EXISTS `${TABLE_NAME}` (`day_of_epoch` INTEGER NOT NULL, `used_time` INTEGER NOT NULL, `category_id` TEXT NOT NULL, `start_time_of_day` INTEGER NOT NULL, `end_time_of_day` INTEGER NOT NULL, PRIMARY KEY(`category_id`, `day_of_epoch`, `start_time_of_day`, `end_time_of_day`))",
        "fields": [
          {
            "fieldPath": "dayOfEpoch",
            "columnName": "day_of_epoch",
            "affinity": "INTEGER",
            "notNull": true
          },
          {
            "fieldPath": "usedMillis",
            "columnName": "used_time",
            "affinity": "INTEGER",
            "notNull": true
          },
          {
            "fieldPath": "categoryId",
            "columnName": "category_id",
            "affinity": "TEXT",
            "notNull": true
          },
          {
            "fieldPath": "startTimeOfDay",
            "columnName": "start_time_of_day",
            "affinity": "INTEGER",
            "notNull": true
          },
          {
            "fieldPath": "endTimeOfDay",
            "columnName": "end_time_of_day",
            "affinity": "INTEGER",
            "notNull": true
          }
        ],
        "primaryKey": {
          "columnNames": [
            "category_id",
            "day_of_epoch",
            "start_time_of_day",
            "end_time_of_day"
          ],
          "autoGenerate": false
        },
        "indices": [],
        "foreignKeys": []
      },
      {
        "tableName": "time_limit_rule",
        "createSql": "CREATE TABLE IF NOT EXISTS `${TABLE_NAME}` (`id` TEXT NOT NULL, `category_id` TEXT NOT NULL, `apply_to_extra_time_usage` INTEGER NOT NULL, `day_mask` INTEGER NOT NULL, `max_time` INTEGER NOT NULL, `start_minute_of_day` INTEGER NOT NULL, `end_minute_of_day` INTEGER NOT NULL, `session_duration_milliseconds` INTEGER NOT NULL, `session_pause_milliseconds` INTEGER NOT NULL, `per_day` INTEGER NOT NULL, PRIMARY KEY(`id`))",
        "fields": [
          {
            "fieldPath": "id",
            "columnName": "id",
            "affinity": "TEXT",
            "notNull": true
          },
          {
            "fieldPath": "categoryId",
            "columnName": "category_id",
            "affinity": "TEXT",
            "notNull": true
          },
          {
            "fieldPath": "applyToExtraTimeUsage",
            "columnName": "apply_to_extra_time_usage",
            "affinity": "INTEGER",
            "notNull": true
          },
          {
            "fieldPath": "dayMask",
            "columnName": "day_mask",
            "affinity": "INTEGER",
            "notNull": true
          },
          {
            "fieldPath": "maximumTimeInMillis",
            "columnName": "max_time",
            "affinity": "INTEGER",
            "notNull": true
          },
          {
            "fieldPath": "startMinuteOfDay",
            "columnName": "start_minute_of_day",
            "affinity": "INTEGER",
            "notNull": true
          },
          {
            "fieldPath": "endMinuteOfDay",
            "columnName": "end_minute_of_day",
            "affinity": "INTEGER",
            "notNull": true
          },
          {
            "fieldPath": "sessionDurationMilliseconds",
            "columnName": "session_duration_milliseconds",
            "affinity": "INTEGER",
            "notNull": true
          },
          {
            "fieldPath": "sessionPauseMilliseconds",
            "columnName": "session_pause_milliseconds",
            "affinity": "INTEGER",
            "notNull": true
          },
          {
            "fieldPath": "perDay",
            "columnName": "per_day",
            "affinity": "INTEGER",
            "notNull": true
          }
        ],
        "primaryKey": {
          "columnNames": [
            "id"
          ],
          "autoGenerate": false
        },
        "indices": [],
        "foreignKeys": []
      },
      {
        "tableName": "config",
        "createSql": "CREATE TABLE IF NOT EXISTS `${TABLE_NAME}` (`id` INTEGER NOT NULL, `value` TEXT NOT NULL, PRIMARY KEY(`id`))",
        "fields": [
          {
            "fieldPath": "key",
            "columnName": "id",
            "affinity": "INTEGER",
            "notNull": true
          },
          {
            "fieldPath": "value",
            "columnName": "value",
            "affinity": "TEXT",
            "notNull": true
          }
        ],
        "primaryKey": {
          "columnNames": [
            "id"
          ],
          "autoGenerate": false
        },
        "indices": [],
        "foreignKeys": []
      },
      {
        "tableName": "temporarily_allowed_app",
        "createSql": "CREATE TABLE IF NOT EXISTS `${TABLE_NAME}` (`device_id` TEXT NOT NULL, `package_name` TEXT NOT NULL, PRIMARY KEY(`device_id`, `package_name`))",
        "fields": [
          {
            "fieldPath": "deviceId",
            "columnName": "device_id",
            "affinity": "TEXT",
            "notNull": true
          },
          {
            "fieldPath": "packageName",
            "columnName": "package_name",
            "affinity": "TEXT",
            "notNull": true
          }
        ],
        "primaryKey": {
          "columnNames": [
            "device_id",
            "package_name"
          ],
          "autoGenerate": false
        },
        "indices": [],
        "foreignKeys": []
      },
      {
        "tableName": "pending_sync_action",
        "createSql": "CREATE TABLE IF NOT EXISTS `${TABLE_NAME}` (`sequence_number` INTEGER NOT NULL, `action` TEXT NOT NULL, `integrity` TEXT NOT NULL, `scheduled_for_upload` INTEGER NOT NULL, `type` TEXT NOT NULL, `user_id` TEXT NOT NULL, PRIMARY KEY(`sequence_number`))",
        "fields": [
          {
            "fieldPath": "sequenceNumber",
            "columnName": "sequence_number",
            "affinity": "INTEGER",
            "notNull": true
          },
          {
            "fieldPath": "encodedAction",
            "columnName": "action",
            "affinity": "TEXT",
            "notNull": true
          },
          {
            "fieldPath": "integrity",
            "columnName": "integrity",
            "affinity": "TEXT",
            "notNull": true
          },
          {
            "fieldPath": "scheduledForUpload",
            "columnName": "scheduled_for_upload",
            "affinity": "INTEGER",
            "notNull": true
          },
          {
            "fieldPath": "type",
            "columnName": "type",
            "affinity": "TEXT",
            "notNull": true
          },
          {
            "fieldPath": "userId",
            "columnName": "user_id",
            "affinity": "TEXT",
            "notNull": true
          }
        ],
        "primaryKey": {
          "columnNames": [
            "sequence_number"
          ],
          "autoGenerate": false
        },
        "indices": [
          {
            "name": "index_pending_sync_action_scheduled_for_upload",
            "unique": false,
            "columnNames": [
              "scheduled_for_upload"
            ],
            "orders": [],
            "createSql": "CREATE INDEX IF NOT EXISTS `index_pending_sync_action_scheduled_for_upload` ON `${TABLE_NAME}` (`scheduled_for_upload`)"
          }
        ],
        "foreignKeys": []
      },
      {
        "tableName": "app_activity",
        "createSql": "CREATE TABLE IF NOT EXISTS `${TABLE_NAME}` (`device_id` TEXT NOT NULL, `app_package_name` TEXT NOT NULL, `activity_class_name` TEXT NOT NULL, `activity_title` TEXT NOT NULL, PRIMARY KEY(`device_id`, `app_package_name`, `activity_class_name`))",
        "fields": [
          {
            "fieldPath": "deviceId",
            "columnName": "device_id",
            "affinity": "TEXT",
            "notNull": true
          },
          {
            "fieldPath": "appPackageName",
            "columnName": "app_package_name",
            "affinity": "TEXT",
            "notNull": true
          },
          {
            "fieldPath": "activityClassName",
            "columnName": "activity_class_name",
            "affinity": "TEXT",
            "notNull": true
          },
          {
            "fieldPath": "title",
            "columnName": "activity_title",
            "affinity": "TEXT",
            "notNull": true
          }
        ],
        "primaryKey": {
          "columnNames": [
            "device_id",
            "app_package_name",
            "activity_class_name"
          ],
          "autoGenerate": false
        },
        "indices": [],
        "foreignKeys": []
      },
      {
        "tableName": "notification",
        "createSql": "CREATE TABLE IF NOT EXISTS `${TABLE_NAME}` (`type` INTEGER NOT NULL, `id` TEXT NOT NULL, `first_notify_time` INTEGER NOT NULL, `dismissed` INTEGER NOT NULL, PRIMARY KEY(`type`, `id`))",
        "fields": [
          {
            "fieldPath": "type",
            "columnName": "type",
            "affinity": "INTEGER",
            "notNull": true
          },
          {
            "fieldPath": "id",
            "columnName": "id",
            "affinity": "TEXT",
            "notNull": true
          },
          {
            "fieldPath": "firstNotifyTime",
            "columnName": "first_notify_time",
            "affinity": "INTEGER",
            "notNull": true
          },
          {
            "fieldPath": "isDismissed",
            "columnName": "dismissed",
            "affinity": "INTEGER",
            "notNull": true
          }
        ],
        "primaryKey": {
          "columnNames": [
            "type",
            "id"
          ],
          "autoGenerate": false
        },
        "indices": [],
        "foreignKeys": []
      },
      {
        "tableName": "allowed_contact",
        "createSql": "CREATE TABLE IF NOT EXISTS `${TABLE_NAME}` (`id` INTEGER PRIMARY KEY AUTOINCREMENT NOT NULL, `title` TEXT NOT NULL, `phone` TEXT NOT NULL)",
        "fields": [
          {
            "fieldPath": "id",
            "columnName": "id",
            "affinity": "INTEGER",
            "notNull": true
          },
          {
            "fieldPath": "title",
            "columnName": "title",
            "affinity": "TEXT",
            "notNull": true
          },
          {
            "fieldPath": "phone",
            "columnName": "phone",
            "affinity": "TEXT",
            "notNull": true
          }
        ],
        "primaryKey": {
          "columnNames": [
            "id"
          ],
          "autoGenerate": true
        },
        "indices": [],
        "foreignKeys": []
      },
      {
        "tableName": "user_key",
        "createSql": "CREATE TABLE IF NOT EXISTS `${TABLE_NAME}` (`user_id` TEXT NOT NULL, `key` BLOB NOT NULL, `last_use` INTEGER NOT NULL, PRIMARY KEY(`user_id`), FOREIGN KEY(`user_id`) REFERENCES `user`(`id`) ON UPDATE CASCADE ON DELETE CASCADE )",
        "fields": [
          {
            "fieldPath": "userId",
            "columnName": "user_id",
            "affinity": "TEXT",
            "notNull": true
          },
          {
            "fieldPath": "publicKey",
            "columnName": "key",
            "affinity": "BLOB",
            "notNull": true
          },
          {
            "fieldPath": "lastUse",
            "columnName": "last_use",
            "affinity": "INTEGER",
            "notNull": true
          }
        ],
        "primaryKey": {
          "columnNames": [
            "user_id"
          ],
          "autoGenerate": false
        },
        "indices": [
          {
            "name": "index_user_key_key",
            "unique": true,
            "columnNames": [
              "key"
            ],
            "orders": [],
            "createSql": "CREATE UNIQUE INDEX IF NOT EXISTS `index_user_key_key` ON `${TABLE_NAME}` (`key`)"
          }
        ],
        "foreignKeys": [
          {
            "table": "user",
            "onDelete": "CASCADE",
            "onUpdate": "CASCADE",
            "columns": [
              "user_id"
            ],
            "referencedColumns": [
              "id"
            ]
          }
        ]
      },
      {
        "tableName": "session_duration",
        "createSql": "CREATE TABLE IF NOT EXISTS `${TABLE_NAME}` (`category_id` TEXT NOT NULL, `max_session_duration` INTEGER NOT NULL, `session_pause_duration` INTEGER NOT NULL, `start_minute_of_day` INTEGER NOT NULL, `end_minute_of_day` INTEGER NOT NULL, `last_usage` INTEGER NOT NULL, `last_session_duration` INTEGER NOT NULL, PRIMARY KEY(`category_id`, `max_session_duration`, `session_pause_duration`, `start_minute_of_day`, `end_minute_of_day`), FOREIGN KEY(`category_id`) REFERENCES `category`(`id`) ON UPDATE CASCADE ON DELETE CASCADE )",
        "fields": [
          {
            "fieldPath": "categoryId",
            "columnName": "category_id",
            "affinity": "TEXT",
            "notNull": true
          },
          {
            "fieldPath": "maxSessionDuration",
            "columnName": "max_session_duration",
            "affinity": "INTEGER",
            "notNull": true
          },
          {
            "fieldPath": "sessionPauseDuration",
            "columnName": "session_pause_duration",
            "affinity": "INTEGER",
            "notNull": true
          },
          {
            "fieldPath": "startMinuteOfDay",
            "columnName": "start_minute_of_day",
            "affinity": "INTEGER",
            "notNull": true
          },
          {
            "fieldPath": "endMinuteOfDay",
            "columnName": "end_minute_of_day",
            "affinity": "INTEGER",
            "notNull": true
          },
          {
            "fieldPath": "lastUsage",
            "columnName": "last_usage",
            "affinity": "INTEGER",
            "notNull": true
          },
          {
            "fieldPath": "lastSessionDuration",
            "columnName": "last_session_duration",
            "affinity": "INTEGER",
            "notNull": true
          }
        ],
        "primaryKey": {
          "columnNames": [
            "category_id",
            "max_session_duration",
            "session_pause_duration",
            "start_minute_of_day",
            "end_minute_of_day"
          ],
          "autoGenerate": false
        },
        "indices": [
          {
            "name": "session_duration_index_category_id",
            "unique": false,
            "columnNames": [
              "category_id"
            ],
            "orders": [],
            "createSql": "CREATE INDEX IF NOT EXISTS `session_duration_index_category_id` ON `${TABLE_NAME}` (`category_id`)"
          }
        ],
        "foreignKeys": [
          {
            "table": "category",
            "onDelete": "CASCADE",
            "onUpdate": "CASCADE",
            "columns": [
              "category_id"
            ],
            "referencedColumns": [
              "id"
            ]
          }
        ]
      },
      {
        "tableName": "user_limit_login_category",
        "createSql": "CREATE TABLE IF NOT EXISTS `${TABLE_NAME}` (`user_id` TEXT NOT NULL, `category_id` TEXT NOT NULL, `pre_block_duration` INTEGER NOT NULL DEFAULT 0, PRIMARY KEY(`user_id`), FOREIGN KEY(`user_id`) REFERENCES `user`(`id`) ON UPDATE CASCADE ON DELETE CASCADE , FOREIGN KEY(`category_id`) REFERENCES `category`(`id`) ON UPDATE CASCADE ON DELETE CASCADE )",
        "fields": [
          {
            "fieldPath": "userId",
            "columnName": "user_id",
            "affinity": "TEXT",
            "notNull": true
          },
          {
            "fieldPath": "categoryId",
            "columnName": "category_id",
            "affinity": "TEXT",
            "notNull": true
          },
          {
            "fieldPath": "preBlockDuration",
            "columnName": "pre_block_duration",
            "affinity": "INTEGER",
            "notNull": true,
            "defaultValue": "0"
          }
        ],
        "primaryKey": {
          "columnNames": [
            "user_id"
          ],
          "autoGenerate": false
        },
        "indices": [
          {
            "name": "user_limit_login_category_index_category_id",
            "unique": false,
            "columnNames": [
              "category_id"
            ],
            "orders": [],
            "createSql": "CREATE INDEX IF NOT EXISTS `user_limit_login_category_index_category_id` ON `${TABLE_NAME}` (`category_id`)"
          }
        ],
        "foreignKeys": [
          {
            "table": "user",
            "onDelete": "CASCADE",
            "onUpdate": "CASCADE",
            "columns": [
              "user_id"
            ],
            "referencedColumns": [
              "id"
            ]
          },
          {
            "table": "category",
            "onDelete": "CASCADE",
            "onUpdate": "CASCADE",
            "columns": [
              "category_id"
            ],
            "referencedColumns": [
              "id"
            ]
          }
        ]
      },
      {
        "tableName": "category_network_id",
        "createSql": "CREATE TABLE IF NOT EXISTS `${TABLE_NAME}` (`category_id` TEXT NOT NULL, `network_item_id` TEXT NOT NULL, `hashed_network_id` TEXT NOT NULL, PRIMARY KEY(`category_id`, `network_item_id`), FOREIGN KEY(`category_id`) REFERENCES `category`(`id`) ON UPDATE CASCADE ON DELETE CASCADE )",
        "fields": [
          {
            "fieldPath": "categoryId",
            "columnName": "category_id",
            "affinity": "TEXT",
            "notNull": true
          },
          {
            "fieldPath": "networkItemId",
            "columnName": "network_item_id",
            "affinity": "TEXT",
            "notNull": true
          },
          {
            "fieldPath": "hashedNetworkId",
            "columnName": "hashed_network_id",
            "affinity": "TEXT",
            "notNull": true
          }
        ],
        "primaryKey": {
          "columnNames": [
            "category_id",
            "network_item_id"
          ],
          "autoGenerate": false
        },
        "indices": [],
        "foreignKeys": [
          {
            "table": "category",
            "onDelete": "CASCADE",
            "onUpdate": "CASCADE",
            "columns": [
              "category_id"
            ],
            "referencedColumns": [
              "id"
            ]
          }
        ]
      },
      {
        "tableName": "child_task",
        "createSql": "CREATE TABLE IF NOT EXISTS `${TABLE_NAME}` (`task_id` TEXT NOT NULL, `category_id` TEXT NOT NULL, `task_title` TEXT NOT NULL, `extra_time_duration` INTEGER NOT NULL, `pending_request` INTEGER NOT NULL, `last_grant_timestamp` INTEGER NOT NULL, PRIMARY KEY(`task_id`), FOREIGN KEY(`category_id`) REFERENCES `category`(`id`) ON UPDATE CASCADE ON DELETE CASCADE )",
        "fields": [
          {
            "fieldPath": "taskId",
            "columnName": "task_id",
            "affinity": "TEXT",
            "notNull": true
          },
          {
            "fieldPath": "categoryId",
            "columnName": "category_id",
            "affinity": "TEXT",
            "notNull": true
          },
          {
            "fieldPath": "taskTitle",
            "columnName": "task_title",
            "affinity": "TEXT",
            "notNull": true
          },
          {
            "fieldPath": "extraTimeDuration",
            "columnName": "extra_time_duration",
            "affinity": "INTEGER",
            "notNull": true
          },
          {
            "fieldPath": "pendingRequest",
            "columnName": "pending_request",
            "affinity": "INTEGER",
            "notNull": true
          },
          {
            "fieldPath": "lastGrantTimestamp",
            "columnName": "last_grant_timestamp",
            "affinity": "INTEGER",
            "notNull": true
          }
        ],
        "primaryKey": {
          "columnNames": [
            "task_id"
          ],
          "autoGenerate": false
        },
        "indices": [],
        "foreignKeys": [
          {
            "table": "category",
            "onDelete": "CASCADE",
            "onUpdate": "CASCADE",
            "columns": [
              "category_id"
            ],
            "referencedColumns": [
              "id"
            ]
          }
        ]
      },
      {
        "tableName": "category_time_warning",
        "createSql": "CREATE TABLE IF NOT EXISTS `${TABLE_NAME}` (`category_id` TEXT NOT NULL, `minutes` INTEGER NOT NULL, PRIMARY KEY(`category_id`, `minutes`), FOREIGN KEY(`category_id`) REFERENCES `category`(`id`) ON UPDATE CASCADE ON DELETE CASCADE )",
        "fields": [
          {
            "fieldPath": "categoryId",
            "columnName": "category_id",
            "affinity": "TEXT",
            "notNull": true
          },
          {
            "fieldPath": "minutes",
            "columnName": "minutes",
            "affinity": "INTEGER",
            "notNull": true
          }
        ],
        "primaryKey": {
          "columnNames": [
            "category_id",
            "minutes"
          ],
          "autoGenerate": false
        },
        "indices": [],
        "foreignKeys": [
          {
            "table": "category",
            "onDelete": "CASCADE",
            "onUpdate": "CASCADE",
            "columns": [
              "category_id"
            ],
            "referencedColumns": [
              "id"
            ]
          }
        ]
      },
      {
        "tableName": "crypt_container_metadata",
        "createSql": "CREATE TABLE IF NOT EXISTS `${TABLE_NAME}` (`crypt_container_id` INTEGER PRIMARY KEY AUTOINCREMENT NOT NULL, `device_id` TEXT, `category_id` TEXT, `type` INTEGER NOT NULL, `server_version` TEXT NOT NULL, `current_generation` INTEGER NOT NULL, `current_generation_first_timestamp` INTEGER NOT NULL, `next_counter` INTEGER NOT NULL, `current_generation_key` BLOB, `status` INTEGER NOT NULL, FOREIGN KEY(`device_id`) REFERENCES `device`(`id`) ON UPDATE CASCADE ON DELETE CASCADE , FOREIGN KEY(`category_id`) REFERENCES `category`(`id`) ON UPDATE CASCADE ON DELETE CASCADE )",
        "fields": [
          {
            "fieldPath": "cryptContainerId",
            "columnName": "crypt_container_id",
            "affinity": "INTEGER",
            "notNull": true
          },
          {
            "fieldPath": "deviceId",
            "columnName": "device_id",
            "affinity": "TEXT",
            "notNull": false
          },
          {
            "fieldPath": "categoryId",
            "columnName": "category_id",
            "affinity": "TEXT",
            "notNull": false
          },
          {
            "fieldPath": "type",
            "columnName": "type",
            "affinity": "INTEGER",
            "notNull": true
          },
          {
            "fieldPath": "serverVersion",
            "columnName": "server_version",
            "affinity": "TEXT",
            "notNull": true
          },
          {
            "fieldPath": "currentGeneration",
            "columnName": "current_generation",
            "affinity": "INTEGER",
            "notNull": true
          },
          {
            "fieldPath": "currentGenerationFirstTimestamp",
            "columnName": "current_generation_first_timestamp",
            "affinity": "INTEGER",
            "notNull": true
          },
          {
            "fieldPath": "nextCounter",
            "columnName": "next_counter",
            "affinity": "INTEGER",
            "notNull": true
          },
          {
            "fieldPath": "currentGenerationKey",
            "columnName": "current_generation_key",
            "affinity": "BLOB",
            "notNull": false
          },
          {
            "fieldPath": "status",
            "columnName": "status",
            "affinity": "INTEGER",
            "notNull": true
          }
        ],
        "primaryKey": {
          "columnNames": [
            "crypt_container_id"
          ],
          "autoGenerate": true
        },
        "indices": [
          {
            "name": "index_crypt_container_metadata_device_id",
            "unique": false,
            "columnNames": [
              "device_id"
            ],
            "orders": [],
            "createSql": "CREATE INDEX IF NOT EXISTS `index_crypt_container_metadata_device_id` ON `${TABLE_NAME}` (`device_id`)"
          },
          {
            "name": "index_crypt_container_metadata_category_id",
            "unique": false,
            "columnNames": [
              "category_id"
            ],
            "orders": [],
            "createSql": "CREATE INDEX IF NOT EXISTS `index_crypt_container_metadata_category_id` ON `${TABLE_NAME}` (`category_id`)"
          }
        ],
        "foreignKeys": [
          {
            "table": "device",
            "onDelete": "CASCADE",
            "onUpdate": "CASCADE",
            "columns": [
              "device_id"
            ],
            "referencedColumns": [
              "id"
            ]
          },
          {
            "table": "category",
            "onDelete": "CASCADE",
            "onUpdate": "CASCADE",
            "columns": [
              "category_id"
            ],
            "referencedColumns": [
              "id"
            ]
          }
        ]
      },
      {
        "tableName": "crypt_container_data",
        "createSql": "CREATE TABLE IF NOT EXISTS `${TABLE_NAME}` (`crypt_container_id` INTEGER NOT NULL, `encrypted_data` BLOB NOT NULL, PRIMARY KEY(`crypt_container_id`), FOREIGN KEY(`crypt_container_id`) REFERENCES `crypt_container_metadata`(`crypt_container_id`) ON UPDATE CASCADE ON DELETE CASCADE )",
        "fields": [
          {
            "fieldPath": "cryptContainerId",
            "columnName": "crypt_container_id",
            "affinity": "INTEGER",
            "notNull": true
          },
          {
            "fieldPath": "encryptedData",
            "columnName": "encrypted_data",
            "affinity": "BLOB",
            "notNull": true
          }
        ],
        "primaryKey": {
          "columnNames": [
            "crypt_container_id"
          ],
          "autoGenerate": false
        },
        "indices": [],
        "foreignKeys": [
          {
            "table": "crypt_container_metadata",
            "onDelete": "CASCADE",
            "onUpdate": "CASCADE",
            "columns": [
              "crypt_container_id"
            ],
            "referencedColumns": [
              "crypt_container_id"
            ]
          }
        ]
      },
      {
        "tableName": "crypt_container_pending_key_request",
        "createSql": "CREATE TABLE IF NOT EXISTS `${TABLE_NAME}` (`crypt_container_id` INTEGER NOT NULL, `request_time_crypt_container_generation` INTEGER NOT NULL, `request_sequence_id` INTEGER NOT NULL, `request_key` BLOB NOT NULL, PRIMARY KEY(`crypt_container_id`), FOREIGN KEY(`crypt_container_id`) REFERENCES `crypt_container_metadata`(`crypt_container_id`) ON UPDATE CASCADE ON DELETE CASCADE )",
        "fields": [
          {
            "fieldPath": "cryptContainerId",
            "columnName": "crypt_container_id",
            "affinity": "INTEGER",
            "notNull": true
          },
          {
            "fieldPath": "requestTimeCryptContainerGeneration",
            "columnName": "request_time_crypt_container_generation",
            "affinity": "INTEGER",
            "notNull": true
          },
          {
            "fieldPath": "requestSequenceId",
            "columnName": "request_sequence_id",
            "affinity": "INTEGER",
            "notNull": true
          },
          {
            "fieldPath": "requestKey",
            "columnName": "request_key",
            "affinity": "BLOB",
            "notNull": true
          }
        ],
        "primaryKey": {
          "columnNames": [
            "crypt_container_id"
          ],
          "autoGenerate": false
        },
        "indices": [
          {
            "name": "index_crypt_container_pending_key_request_request_sequence_id",
            "unique": true,
            "columnNames": [
              "request_sequence_id"
            ],
            "orders": [],
            "createSql": "CREATE UNIQUE INDEX IF NOT EXISTS `index_crypt_container_pending_key_request_request_sequence_id` ON `${TABLE_NAME}` (`request_sequence_id`)"
          }
        ],
        "foreignKeys": [
          {
            "table": "crypt_container_metadata",
            "onDelete": "CASCADE",
            "onUpdate": "CASCADE",
            "columns": [
              "crypt_container_id"
            ],
            "referencedColumns": [
              "crypt_container_id"
            ]
          }
        ]
      },
      {
        "tableName": "crypt_container_key_result",
        "createSql": "CREATE TABLE IF NOT EXISTS `${TABLE_NAME}` (`request_sequence_id` INTEGER NOT NULL, `device_id` TEXT NOT NULL, `status` INTEGER NOT NULL, PRIMARY KEY(`request_sequence_id`, `device_id`), FOREIGN KEY(`request_sequence_id`) REFERENCES `crypt_container_pending_key_request`(`request_sequence_id`) ON UPDATE CASCADE ON DELETE CASCADE , FOREIGN KEY(`device_id`) REFERENCES `device`(`id`) ON UPDATE CASCADE ON DELETE CASCADE )",
        "fields": [
          {
            "fieldPath": "requestSequenceId",
            "columnName": "request_sequence_id",
            "affinity": "INTEGER",
            "notNull": true
          },
          {
            "fieldPath": "deviceId",
            "columnName": "device_id",
            "affinity": "TEXT",
            "notNull": true
          },
          {
            "fieldPath": "status",
            "columnName": "status",
            "affinity": "INTEGER",
            "notNull": true
          }
        ],
        "primaryKey": {
          "columnNames": [
            "request_sequence_id",
            "device_id"
          ],
          "autoGenerate": false
        },
        "indices": [
          {
            "name": "index_crypt_container_key_result_request_sequence_id",
            "unique": false,
            "columnNames": [
              "request_sequence_id"
            ],
            "orders": [],
            "createSql": "CREATE INDEX IF NOT EXISTS `index_crypt_container_key_result_request_sequence_id` ON `${TABLE_NAME}` (`request_sequence_id`)"
          },
          {
            "name": "index_crypt_container_key_result_device_id",
            "unique": false,
            "columnNames": [
              "device_id"
            ],
            "orders": [],
            "createSql": "CREATE INDEX IF NOT EXISTS `index_crypt_container_key_result_device_id` ON `${TABLE_NAME}` (`device_id`)"
          }
        ],
        "foreignKeys": [
          {
            "table": "crypt_container_pending_key_request",
            "onDelete": "CASCADE",
            "onUpdate": "CASCADE",
            "columns": [
              "request_sequence_id"
            ],
            "referencedColumns": [
              "request_sequence_id"
            ]
          },
          {
            "table": "device",
            "onDelete": "CASCADE",
            "onUpdate": "CASCADE",
            "columns": [
              "device_id"
            ],
            "referencedColumns": [
              "id"
            ]
          }
        ]
      },
      {
        "tableName": "device_public_key",
        "createSql": "CREATE TABLE IF NOT EXISTS `${TABLE_NAME}` (`device_id` TEXT NOT NULL, `public_key` BLOB NOT NULL, `next_sequence_number` INTEGER NOT NULL, PRIMARY KEY(`device_id`), FOREIGN KEY(`device_id`) REFERENCES `device`(`id`) ON UPDATE CASCADE ON DELETE CASCADE )",
        "fields": [
          {
            "fieldPath": "deviceId",
            "columnName": "device_id",
            "affinity": "TEXT",
            "notNull": true
          },
          {
            "fieldPath": "publicKey",
            "columnName": "public_key",
            "affinity": "BLOB",
            "notNull": true
          },
          {
            "fieldPath": "nextSequenceNumber",
            "columnName": "next_sequence_number",
            "affinity": "INTEGER",
            "notNull": true
          }
        ],
        "primaryKey": {
          "columnNames": [
            "device_id"
          ],
          "autoGenerate": false
        },
        "indices": [],
        "foreignKeys": [
          {
            "table": "device",
            "onDelete": "CASCADE",
            "onUpdate": "CASCADE",
            "columns": [
              "device_id"
            ],
            "referencedColumns": [
              "id"
            ]
          }
        ]
      },
      {
        "tableName": "user_u2f_key",
        "createSql": "CREATE TABLE IF NOT EXISTS `${TABLE_NAME}` (`key_id` INTEGER PRIMARY KEY AUTOINCREMENT NOT NULL, `user_id` TEXT NOT NULL, `added_at` INTEGER NOT NULL, `key_handle` BLOB NOT NULL, `public_key` BLOB NOT NULL, `next_counter` INTEGER NOT NULL, FOREIGN KEY(`user_id`) REFERENCES `user`(`id`) ON UPDATE CASCADE ON DELETE CASCADE )",
        "fields": [
          {
            "fieldPath": "keyId",
            "columnName": "key_id",
            "affinity": "INTEGER",
            "notNull": true
          },
          {
            "fieldPath": "userId",
            "columnName": "user_id",
            "affinity": "TEXT",
            "notNull": true
          },
          {
            "fieldPath": "addedAt",
            "columnName": "added_at",
            "affinity": "INTEGER",
            "notNull": true
          },
          {
            "fieldPath": "keyHandle",
            "columnName": "key_handle",
            "affinity": "BLOB",
            "notNull": true
          },
          {
            "fieldPath": "publicKey",
            "columnName": "public_key",
            "affinity": "BLOB",
            "notNull": true
          },
          {
            "fieldPath": "nextCounter",
            "columnName": "next_counter",
            "affinity": "INTEGER",
            "notNull": true
          }
        ],
        "primaryKey": {
          "columnNames": [
            "key_id"
          ],
          "autoGenerate": true
        },
        "indices": [
          {
            "name": "index_user_u2f_key_key_handle_public_key",
            "unique": true,
            "columnNames": [
              "key_handle",
              "public_key"
            ],
            "orders": [],
            "createSql": "CREATE UNIQUE INDEX IF NOT EXISTS `index_user_u2f_key_key_handle_public_key` ON `${TABLE_NAME}` (`key_handle`, `public_key`)"
          },
          {
            "name": "index_user_u2f_key_user_id",
            "unique": false,
            "columnNames": [
              "user_id"
            ],
            "orders": [],
            "createSql": "CREATE INDEX IF NOT EXISTS `index_user_u2f_key_user_id` ON `${TABLE_NAME}` (`user_id`)"
          }
        ],
        "foreignKeys": [
          {
            "table": "user",
            "onDelete": "CASCADE",
            "onUpdate": "CASCADE",
            "columns": [
              "user_id"
            ],
            "referencedColumns": [
              "id"
            ]
          }
        ]
      }
    ],
    "views": [],
    "setupQueries": [
      "CREATE TABLE IF NOT EXISTS room_master_table (id INTEGER PRIMARY KEY,identity_hash TEXT)",
      "INSERT OR REPLACE INTO room_master_table (id,identity_hash) VALUES(42, '45eb2e6e0d8c7596c499e018cd3203a4')"
    ]
  }
}